<svg width="38" height="38" viewBox="0 0 38 38" fill="none" xmlns="http://www.w3.org/2000/svg">
<path d="M1.50037 36.5001L36.0004 2" stroke="black" stroke-width="4"/>
<path d="M0 2H36.0001V38.0001" stroke="black" stroke-width="4"/>
</svg>
