<svg width="14" height="14" viewBox="0 0 14 14" fill="none" xmlns="http://www.w3.org/2000/svg">
<path d="M1.5 12.5L13 1" stroke="white" stroke-width="2"/>
<path d="M1 1H13V13" stroke="white" stroke-width="2"/>
</svg>
