<svg width="23" height="23" viewBox="0 0 23 23" fill="none" xmlns="http://www.w3.org/2000/svg">
<path d="M22 13L22 1L10 1" stroke="#FAFF00" stroke-width="2"/>
<path d="M1 10L1 22H13" stroke="#FAFF00" stroke-width="2"/>
</svg>
