<svg width="29" height="30" viewBox="0 0 29 30" fill="none" xmlns="http://www.w3.org/2000/svg">
<path d="M12 30L12 18L4.53027e-07 18" stroke="#FAFF00" stroke-width="2"/>
<path d="M17 0V12L29 12" stroke="#FAFF00" stroke-width="2"/>
</svg>
