<svg width="29" height="29" viewBox="0 0 29 29" fill="none" xmlns="http://www.w3.org/2000/svg">
<rect y="12.8737" width="28.4306" height="2.86081" fill="white"/>
<rect x="15.6368" width="28.6081" height="2.84306" transform="rotate(90 15.6368 0)" fill="white"/>
</svg>
